

 NAS Parallel Benchmarks 3.4 -- FT Benchmark

 No input file inputft.data. Using compiled defaults
 Size                : 2048x1024x1024  (class D)
 Iterations          :             25
 Number of processes :             64
 Processor array     :         1x  64
 Layout type         :             1D
15 total processes killed (some possibly by mpirun during cleanup)
